<svg width="121" height="121" viewBox="0 0 121 121" fill="none" xmlns="http://www.w3.org/2000/svg">
<path d="M106.934 80.1121C103.726 87.6972 98.7097 94.3811 92.3224 99.5795C85.9351 104.778 78.3716 108.332 70.2931 109.932C62.2147 111.532 53.8673 111.129 45.9807 108.758C38.0942 106.386 30.9086 102.119 25.0521 96.3294C19.1957 90.5395 14.8468 83.4031 12.3855 75.5441C9.9243 67.6851 9.4257 59.3429 10.9333 51.2467C12.441 43.1505 15.909 35.5469 21.0341 29.1007C26.1592 22.6544 32.7854 17.5617 40.3333 14.2679" stroke="white" stroke-width="6" stroke-linecap="round" stroke-linejoin="round"/>
<path d="M110.917 60.5C110.917 53.8792 109.613 47.3232 107.079 41.2064C104.545 35.0895 100.832 29.5316 96.15 24.85C91.4683 20.1684 85.9105 16.4547 79.7936 13.9211C73.6768 11.3874 67.1208 10.0833 60.5 10.0833V60.5H110.917Z" fill="white" stroke="white" stroke-width="6" stroke-linecap="round" stroke-linejoin="round"/>
</svg>
