<svg width="386" height="386" viewBox="0 0 386 386" fill="none" xmlns="http://www.w3.org/2000/svg">
<g clip-path="url(#clip0)">
<path d="M256.602 278.63L384.601 279.226L384.402 321.892L256.404 321.296L256.602 278.63Z" fill="black"/>
<path d="M129.1 171.369L385.097 172.561L384.899 215.227L128.901 214.036L129.1 171.369Z" fill="black"/>
<path d="M1.59769 64.108L385.594 65.8949L385.395 108.561L1.39914 106.775L1.59769 64.108Z" fill="black"/>
</g>
<defs>
<clipPath id="clip0">
<rect width="384" height="384" fill="white" transform="matrix(0.999997 0.00223008 0.00223008 -0.999997 0.572296 384.571)"/>
</clipPath>
</defs>
</svg>
